ST558 - HW 8: Basic Modeling Practice
…
# A tibble: 2 × 4
  .metric .estimator .estimate .config        
  <chr>   <chr>          <dbl> <chr>          
1 rmse    standard    4285.    pre0_mod0_post0
2 rsq     standard       0.819 pre0_mod0_post0

To end, we will obtain the final model (fit on the entire training set) coefficient table.

final_model_coeffs <- best_fit |>
  extract_fit_parsnip() |>
  tidy()

final_model_coeffs

# A tibble: 26 × 5
   term                        estimate std.error statistic   p.value
   <chr>                          <dbl>     <dbl>     <dbl>     <dbl>
 1 (Intercept)                  17545.       223.   78.7    7.25e-172
 2 avg_temp_c_poly_1            -7804.      5228.   -1.49   1.37e-  1
 3 avg_temp_c_poly_2            -2595.       965.   -2.69   7.67e-  3
 4 avg_humidity_pct_poly_1      -4358.      1849.   -2.36   1.92e-  2
 5 avg_humidity_pct_poly_2         41.6      478.    0.0871 9.31e-  1
 6 avg_windspeed_m_s_poly_1      -558.       261.   -2.14   3.34e-  2
 7 avg_windspeed_m_s_poly_2       221.       241.    0.916  3.61e-  1
 8 avg_visibility_10m_poly_1      590.       314.    1.88   6.13e-  2
 9 avg_visibility_10m_poly_2     -144.       240.   -0.597  5.51e-  1
10 avg_dew_point_temp_c_poly_1  14313.      6145.    2.33   2.07e-  2
# ℹ 16 more rows
